com/amazon/alexa/avs/AVSAPIConstants$AudioPlayer$Events$PlaybackFailed.class
com/amazon/alexa/avs/AVSAudioPlayer$SpeechState.class
com/amazon/alexa/avs/AV_Profiler.class
com/amazon/alexa/avs/AVSController$1.class
com/amazon/alexa/avs/AVSAPIConstants$AudioPlayer$Directives$Stop.class
com/amazon/alexa/avs/auth/companionapp/server/DeviceInfoHandler.class
com/amazon/alexa/avs/config/ObjectMapperFactory.class
com/amazon/alexa/avs/AlertManagerFactory.class
com/amazon/alexa/avs/AVSAPIConstants$AudioPlayer$Events$PlaybackNearlyFinished.class
com/amazon/alexa/avs/AudioPlayerStateMachine$PlaybackPaused.class
com/amazon/alexa/avs/AVSAPIConstants$PlaybackController$Events$NextCommandIssued.class
com/amazon/alexa/avs/AVSAPIConstants$AudioPlayer$Events$PlaybackPaused.class
com/amazon/alexa/avs/auth/OAuth2AccessToken.class
com/amazon/alexa/avs/message/response/alerts/DeleteAlert.class
com/amazon/alexa/avs/http/MultipartContentProvider$MultipartIterator.class
com/amazon/alexa/avs/AVSAPIConstants$SpeechRecognizer$Events$ExpectSpeechTimedOut.class
com/amazon/alexa/avs/AVSAPIConstants$SpeechSynthesizer$Events$SpeechState.class
com/amazon/alexa/avs/http/AVSClient$DownchannelRequestThread.class
com/amazon/alexa/avs/AVSAPIConstants$System$Exception.class
com/amazon/alexa/avs/AudioPlayerStateMachine$PlaybackFailed.class
com/amazon/alexa/avs/AVSAPIConstants$System$Events.class
com/amazon/alexa/avs/DirectiveEnqueuer.class
com/amazon/alexa/avs/message/Payload.class
com/amazon/alexa/avs/Oxford$CreateResult.class
com/amazon/alexa/avs/exception/DirectiveHandlingException.class
com/amazon/alexa/avs/auth/AccessTokenListener.class
com/amazon/alexa/avs/AVSAPIConstants$AudioPlayer$Events$PlaybackStopped.class
com/amazon/alexa/avs/auth/companionservice/CompanionServiceClient.class
com/amazon/alexa/avs/message/response/speaker/SetMute.class
com/amazon/alexa/avs/AlertsFileDataStore.class
com/amazon/alexa/avs/AVSAudioPlayer.class
com/amazon/alexa/avs/http/AVSClient$2.class
com/amazon/alexa/avs/AudioPlayerStateMachine$PlaybackStutterFinished.class
com/amazon/alexa/avs/AVSAPIConstants$Alerts$Events$SetAlertFailed.class
com/amazon/alexa/avs/AVSAPIConstants$Alerts$Events$AlertEnteredBackground.class
com/amazon/alexa/avs/http/MultipartParser$MultipartParserConsumer.class
com/amazon/alexa/avs/AVSAPIConstants$Speaker$Events$VolumeState.class
com/amazon/alexa/avs/AVSAPIConstants$Alerts$Directives$SetAlert.class
com/amazon/alexa/avs/AVSAPIConstants$Speaker$Directives.class
com/amazon/alexa/avs/message/response/system/Exception.class
com/amazon/alexa/avs/AV_Verify.class
com/amazon/alexa/avs/AVSAPIConstants$Speaker$Events$VolumeChanged.class
com/amazon/alexa/avs/http/jetty/PingSendingHttpClientTransportOverHTTP2$ServerPing.class
com/amazon/alexa/avs/auth/companionapp/server/CompanionAppProvisioningServer.class
com/amazon/alexa/avs/AVSAPIConstants$Speaker$Events$MuteChanged.class
com/amazon/alexa/avs/exception/DirectiveHandlingException$ExceptionType.class
com/amazon/alexa/avs/AVSAPIConstants$Alerts.class
com/amazon/alexa/avs/AlertsFileDataStore$2.class
com/amazon/alexa/avs/message/Message$MessageDeserializer.class
com/amazon/alexa/avs/AudioStateOutputStream.class
com/amazon/alexa/avs/AVSAPIConstants$AudioPlayer$Events$PlaybackStutterStarted.class
com/amazon/alexa/avs/message/response/audioplayer/AudioItem.class
com/amazon/alexa/avs/config/DeviceConfigUtils.class
com/amazon/alexa/avs/auth/companionservice/RegCodeDisplayHandler.class
com/amazon/alexa/avs/message/request/speechrecognizer/SpeechRecognizerPayload.class
com/amazon/alexa/avs/AudioPlayerStateMachine$AudioPlayerStateTransition.class
com/amazon/alexa/avs/AlertScheduler.class
com/amazon/alexa/avs/AudioPlayerStateMachine$ClearQueueAll.class
com/amazon/alexa/avs/message/request/audioplayer/AudioPlayerPayload.class
com/amazon/alexa/avs/AVSAudioPlayer$5.class
com/amazon/alexa/avs/DirectiveDispatcher.class
com/amazon/alexa/avs/message/response/AlexaExceptionResponse.class
com/amazon/alexa/avs/UserActivityListener.class
com/amazon/alexa/avs/http/jetty/InputStreamResponseListener$Input.class
com/amazon/alexa/avs/http/AVSClient$1.class
com/amazon/alexa/avs/message/request/audioplayer/PlaybackFailedPayload$ErrorType.class
com/amazon/alexa/avs/AVSAPIConstants$SpeechRecognizer$Directives$RequestProcessingStarted.class
com/amazon/alexa/avs/Oxford$VerificationResult.class
com/amazon/alexa/avs/AVSController$UserInactivityReport.class
com/amazon/alexa/avs/message/request/RequestFactory$Request.class
com/amazon/alexa/avs/AVSAPIConstants$SpeechSynthesizer$Events$SpeechStarted.class
com/amazon/alexa/avs/message/request/context/AlertsStatePayload.class
com/amazon/alexa/avs/message/response/audioplayer/Stop.class
com/amazon/alexa/avs/message/response/audioplayer/ClearQueue$ClearBehavior.class
com/amazon/alexa/avs/auth/companionservice/CompanionServiceAuthManager$RefreshTokenTimerTask.class
com/amazon/alexa/avs/config/DeviceConfig$MalformedConfigException.class
com/amazon/alexa/avs/http/jetty/PingSendingHttpClientTransportOverHTTP2.class
com/amazon/alexa/avs/message/request/system/ExceptionEncounteredPayload$ErrorStructure.class
com/amazon/alexa/avs/message/Message.class
com/amazon/alexa/avs/State.class
com/amazon/alexa/avs/AVSAPIConstants$AudioPlayer$Events.class
com/amazon/alexa/avs/auth/AuthConstants.class
com/amazon/alexa/avs/auth/MissingParameterException.class
com/amazon/alexa/avs/AVSController$2.class
com/amazon/alexa/avs/auth/AuthSetup.class
com/amazon/alexa/avs/AVSAPIConstants$AudioPlayer$Events$ProgressReportDelayElapsed.class
com/amazon/alexa/avs/AudioPlayerStateMachine$IntervalProgressReport.class
com/amazon/alexa/avs/auth/AuthSetup$2.class
com/amazon/alexa/avs/exception/AVSJsonProcessingException.class
com/amazon/alexa/avs/AVSApp.class
com/amazon/alexa/avs/AVSAPIConstants$SpeechRecognizer$Events.class
com/amazon/alexa/avs/message/request/audioplayer/PlaybackNearlyFinishedPayload.class
com/amazon/alexa/avs/message/request/ComponentStateFactory.class
com/amazon/alexa/avs/http/ParsingFailedHandler.class
com/amazon/alexa/avs/AVSAPIConstants$SpeechRecognizer$Directives$StopCapture.class
com/amazon/alexa/avs/AudioPlayerStateMachine$PlaybackFinished.class
com/amazon/alexa/avs/AudioPlayerStateMachine.class
com/amazon/alexa/avs/http/AVSClient.class
com/amazon/alexa/avs/http/jetty/InputStreamResponseListener.class
com/amazon/alexa/avs/AudioPlayerStateMachine$ClearQueueEnqueued.class
com/amazon/alexa/avs/message/request/audioplayer/PlaybackFailedPayload.class
com/amazon/alexa/avs/PlaybackAction.class
com/amazon/alexa/avs/SpeechProfile.class
com/amazon/alexa/avs/AVSAPIConstants$SpeechRecognizer$Directives$ExpectSpeech.class
com/amazon/alexa/avs/AVSAudioPlayerFactory.class
com/amazon/alexa/avs/AudioPlayerProgressReporter.class
com/amazon/alexa/avs/auth/companionapp/CompanionAppAuthManager$1.class
com/amazon/alexa/avs/message/request/Event.class
com/amazon/alexa/avs/message/request/context/ComponentState.class
com/amazon/alexa/avs/AVSAPIConstants$SpeechSynthesizer$Events$SpeechFinished.class
com/amazon/alexa/avs/auth/companionservice/CompanionServiceClient$RemoteServiceException.class
com/amazon/alexa/avs/AVSAPIConstants$Alerts$Events$AlertStopped.class
com/amazon/alexa/avs/auth/companionapp/OAuth2ClientForPkce.class
com/amazon/alexa/avs/AVSAPIConstants$System$Events$UserInactivityReport.class
com/amazon/alexa/avs/http/HttpHeaders.class
com/amazon/alexa/avs/message/response/Directive.class
com/amazon/alexa/avs/http/CachingContentProvider$CachingIterator.class
com/amazon/alexa/avs/DialogRequestIdAuthority.class
com/amazon/alexa/avs/AVSAudioPlayer$1.class
com/amazon/alexa/avs/message/response/audioplayer/Stream.class
com/amazon/alexa/avs/message/DialogRequestIdHeader.class
com/amazon/alexa/avs/http/AudioInputStreamContentProvider.class
com/amazon/alexa/avs/AVSAPIConstants$Alerts$Directives.class
com/amazon/alexa/avs/AVSAPIConstants$AudioPlayer$Events$PlaybackStutterFinished.class
com/amazon/alexa/avs/AudioPlayerStateMachine$DelayProgressReport.class
com/amazon/alexa/avs/auth/companionapp/OAuth2TokensForPkce.class
com/amazon/alexa/avs/AVSAPIConstants.class
com/amazon/alexa/avs/AVSAPIConstants$PlaybackController$Events$PreviousCommandIssued.class
com/amazon/alexa/avs/AudioCapture.class
com/amazon/alexa/avs/auth/companionapp/server/CompanionInfoHandler.class
com/amazon/alexa/avs/Oxford.class
com/amazon/alexa/avs/AVSAudioPlayer$2.class
com/amazon/alexa/avs/http/CachingContentProvider.class
com/amazon/alexa/avs/AlertManager$ResultListener.class
com/amazon/alexa/avs/SimpleStateChangeTransition.class
com/amazon/alexa/avs/AlertHandler.class
com/amazon/alexa/avs/message/response/speaker/AdjustVolume.class
com/amazon/alexa/avs/AudioCapture$AudioBufferThread.class
com/amazon/alexa/avs/exception/AVSException.class
com/amazon/alexa/avs/auth/AuthSetup$1.class
com/amazon/alexa/avs/AudioPlayerEventPayload.class
com/amazon/alexa/avs/AVSAPIConstants$System$Directives$ResetUserInactivity.class
com/amazon/alexa/avs/AVSAPIConstants$PlaybackController.class
com/amazon/alexa/avs/AVSAPIConstants$Speaker$Directives$AdjustVolume.class
com/amazon/alexa/avs/message/request/context/SpeechStatePayload.class
com/amazon/alexa/avs/config/DeviceConfig$CompanionAppInformation.class
com/amazon/alexa/avs/auth/companionapp/CompanionAppAuthManager$InvalidSessionIdException.class
com/amazon/alexa/avs/AV_Audio.class
com/amazon/alexa/avs/auth/companionservice/CompanionServiceAuthManager.class
com/amazon/alexa/avs/AVSAPIConstants$Alerts$Events$DeleteAlertSucceeded.class
com/amazon/alexa/avs/AVSAudioPlayer$3.class
com/amazon/alexa/avs/exception/AlexaSystemException.class
com/amazon/alexa/avs/Oxford$EnrollResult.class
com/amazon/alexa/avs/http/AVSClientFactory.class
com/amazon/alexa/avs/message/response/audioplayer/ClearQueue.class
com/amazon/alexa/avs/AVSAPIConstants$System$Events$SynchronizeState.class
com/amazon/alexa/avs/AVSAPIConstants$AudioPlayer$Directives$Play.class
com/amazon/alexa/avs/AVSApp$2$1.class
com/amazon/alexa/avs/AudioInputFormat$Constants.class
com/amazon/alexa/avs/http/jetty/InputStreamResponseListener$1.class
com/amazon/alexa/avs/SpeakItem.class
com/amazon/alexa/avs/AVSAPIConstants$Alerts$Events$AlertEnteredForeground.class
com/amazon/alexa/avs/AVSAPIConstants$Speaker$Events.class
com/amazon/alexa/avs/AudioPlayerActivity.class
com/amazon/alexa/avs/AVSApp$6.class
com/amazon/alexa/avs/message/request/context/VolumeStatePayload.class
com/amazon/alexa/avs/message/response/speechsynthesizer/ExpectSpeech.class
com/amazon/alexa/avs/auth/companionapp/CodeChallengeWorkflow.class
com/amazon/alexa/avs/AlertsDataStore.class
com/amazon/alexa/avs/AVSAPIConstants$Speaker.class
com/amazon/alexa/avs/AVSAPIConstants$AudioPlayer$Events$PlaybackQueueCleared.class
com/amazon/alexa/avs/auth/companionapp/CompanionAppAuthManager$RefreshTokenTimerTask.class
com/amazon/alexa/avs/AVSAPIConstants$Speaker$Directives$SetMute.class
com/amazon/alexa/avs/AVSAudioPlayer$AlertState.class
com/amazon/alexa/avs/AlertScheduler$1.class
com/amazon/alexa/avs/message/response/audioplayer/Play$PlayBehavior.class
com/amazon/alexa/avs/Alert$ZonedDateTimeSerializer.class
com/amazon/alexa/avs/http/ContentTypes.class
com/amazon/alexa/avs/message/request/RequestBody.class
com/amazon/alexa/avs/AVSController$3.class
com/amazon/alexa/avs/AVSApp$7.class
com/amazon/alexa/avs/AVSAPIConstants$SpeechSynthesizer$Directives.class
com/amazon/alexa/avs/AVSAudioPlayer$4.class
com/amazon/alexa/avs/message/response/AttachedContentPayload.class
com/amazon/alexa/avs/message/request/ContextEventRequestBody.class
com/amazon/alexa/avs/message/request/audioplayer/PlaybackFailedPayload$ErrorStructure.class
com/amazon/alexa/avs/message/request/system/ExceptionEncounteredPayload.class
com/amazon/alexa/avs/message/response/ResponseBody.class
com/amazon/alexa/avs/SpeechRequestAudioPlayerPauseController$1.class
com/amazon/alexa/avs/AVSAPIConstants$Alerts$Events$AlertsState.class
com/amazon/alexa/avs/AVSApp$1.class
com/amazon/alexa/avs/AlertsFileDataStore$1.class
com/amazon/alexa/avs/AudioPlayerStateMachine$PlaybackStopped.class
com/amazon/alexa/avs/AVSAPIConstants$AudioPlayer$Directives.class
com/amazon/alexa/avs/http/MessageParser.class
com/amazon/alexa/avs/message/response/speaker/VolumePayload.class
com/amazon/alexa/avs/message/request/context/PlaybackStatePayload.class
com/amazon/alexa/avs/AlertManager.class
com/amazon/alexa/avs/message/request/speechsynthesizer/SpeechLifecyclePayload.class
com/amazon/alexa/avs/message/request/system/UserInactivityReportPayload.class
com/amazon/alexa/avs/AVSAPIConstants$SpeechRecognizer$Directives.class
com/amazon/alexa/avs/ExpectSpeechListener.class
com/amazon/alexa/avs/message/Header.class
com/amazon/alexa/avs/AVSAPIConstants$PlaybackController$Events.class
com/amazon/alexa/avs/http/AVSClient$MalformedResponseException.class
com/amazon/alexa/avs/AudioPlayerStateMachine$AudioPlayerState.class
com/amazon/alexa/avs/message/response/speechrecognizer/Listen.class
com/amazon/alexa/avs/message/response/speechsynthesizer/Speak.class
com/amazon/alexa/avs/AlertEventListener.class
com/amazon/alexa/avs/AlertsFileDataStore$1$1.class
com/amazon/alexa/avs/AVSAPIConstants$Speaker$Directives$SetVolume.class
com/amazon/alexa/avs/http/AVSClient$RequestThread.class
com/amazon/alexa/avs/http/RetryPolicy.class
com/amazon/alexa/avs/AVSAudioPlayer$AlexaSpeechListener.class
com/amazon/alexa/avs/AV_Audio$1.class
com/amazon/alexa/avs/AVSApp$2.class
com/amazon/alexa/avs/AVSApp$5.class
com/amazon/alexa/avs/AudioPlayerStateMachine$PlaybackNearlyFinished.class
com/amazon/alexa/avs/AVSAPIConstants$System$Events$ExceptionEncountered.class
com/amazon/alexa/avs/message/request/RequestFactory.class
com/amazon/alexa/avs/http/MultipartContentProvider.class
com/amazon/alexa/avs/Alert.class
com/amazon/alexa/avs/AVSAPIConstants$System$Directives.class
com/amazon/alexa/avs/http/AVSClient$RequestException.class
com/amazon/alexa/avs/http/HttpHeaders$Parameters.class
com/amazon/alexa/avs/AVSAPIConstants$SpeechSynthesizer.class
com/amazon/alexa/avs/BlockableDirectiveThread.class
com/amazon/alexa/avs/auth/companionapp/CompanionAppProvisioningInfo.class
com/amazon/alexa/avs/MicrophoneLineFactory.class
com/amazon/alexa/avs/message/response/audioplayer/Play.class
com/amazon/alexa/avs/auth/companionservice/CompanionServiceAuthManager$1.class
com/amazon/alexa/avs/message/response/speaker/SetVolume.class
com/amazon/alexa/avs/auth/AuthConstants$OAuth2.class
com/amazon/alexa/avs/AVSAPIConstants$Alerts$Events$SetAlertSucceeded.class
com/amazon/alexa/avs/AVSAudioPlayer$ProgressReportIntervalEventRunnable.class
com/amazon/alexa/avs/AVSAPIConstants$PlaybackController$Events$PlayCommandIssued.class
com/amazon/alexa/avs/AudioPlayerStateMachine$PlaybackResumed.class
com/amazon/alexa/avs/AVSAPIConstants$SpeechSynthesizer$Events.class
com/amazon/alexa/avs/message/request/alerts/AlertPayload.class
com/amazon/alexa/avs/auth/companionapp/CompanionAppAuthManager.class
com/amazon/alexa/avs/AVSController.class
com/amazon/alexa/avs/DateUtils.class
com/amazon/alexa/avs/message/response/ProgressReport.class
com/amazon/alexa/avs/RequestListener.class
com/amazon/alexa/avs/AVSAPIConstants$AudioPlayer.class
com/amazon/alexa/avs/auth/companionapp/LWAException.class
com/amazon/alexa/avs/AudioPlayerStateMachine$PlaybackStarted.class
com/amazon/alexa/avs/AVSAPIConstants$AudioPlayer$Events$PlaybackState.class
com/amazon/alexa/avs/message/response/alerts/SetAlert.class
com/amazon/alexa/avs/AVSAPIConstants$SpeechRecognizer.class
com/amazon/alexa/avs/http/MultipartContentProvider$IteratorOfIterators.class
com/amazon/alexa/avs/RecordingStateListener.class
com/amazon/alexa/avs/http/AVSClient$Resource.class
com/amazon/alexa/avs/AlertManager$2.class
com/amazon/alexa/avs/http/MultipartContentProvider$1.class
com/amazon/alexa/avs/auth/companionapp/DeviceProvisioningInfo.class
com/amazon/alexa/avs/AVSAPIConstants$Alerts$Events$AlertStarted.class
com/amazon/alexa/avs/AVSAPIConstants$PlaybackController$Events$PauseCommandIssued.class
com/amazon/alexa/avs/message/request/audioplayer/PlaybackStutterFinishedPayload.class
com/amazon/alexa/avs/http/MultipartContentProvider$PartContentProvider.class
com/amazon/alexa/avs/http/AbstractRetryPolicy.class
com/amazon/alexa/avs/AudioInputFormat.class
com/amazon/alexa/avs/AVSApp$3.class
com/amazon/alexa/avs/message/MessageIdHeader.class
com/amazon/alexa/avs/AVSAudioPlayer$ProgressReportDelayEventRunnable.class
com/amazon/alexa/avs/AVSAPIConstants$AudioPlayer$Events$PlaybackFinished.class
com/amazon/alexa/avs/config/DeviceConfig.class
com/amazon/alexa/avs/http/ExponentialRetryPolicy.class
com/amazon/alexa/avs/RecordingRMSListener.class
com/amazon/alexa/avs/AlertManager$1.class
com/amazon/alexa/avs/auth/companionservice/CompanionServiceRegCodeResponse.class
com/amazon/alexa/avs/AV_API.class
com/amazon/alexa/avs/AVSAPIConstants$SpeechSynthesizer$Directives$Speak.class
com/amazon/alexa/avs/AudioPlayerStateMachine$PlaybackStutterStarted.class
com/amazon/alexa/avs/AVSAPIConstants$SpeechRecognizer$Events$Recognize.class
com/amazon/alexa/avs/http/MultipartParser.class
com/amazon/alexa/avs/config/DeviceConfig$ProvisioningMethod.class
com/amazon/alexa/avs/AVSAPIConstants$AudioPlayer$Directives$ClearQueue.class
com/amazon/alexa/avs/http/jetty/PingSendingHttpClientTransportOverHTTP2$ConnectionStatusHttpDestinationOverHTTP2.class
com/amazon/alexa/avs/http/jetty/PingSendingHttpClientTransportOverHTTP2$ConnectionListener.class
com/amazon/alexa/avs/SpeechRequestAudioPlayerPauseController.class
com/amazon/alexa/avs/AVSAPIConstants$Alerts$Events$DeleteAlertFailed.class
com/amazon/alexa/avs/http/jetty/PingSendingHttpClientTransportOverHTTP2$1.class
com/amazon/alexa/avs/config/DeviceConfig$CompanionServiceInformation.class
com/amazon/alexa/avs/AVSAPIConstants$Alerts$Directives$DeleteAlert.class
com/amazon/alexa/avs/message/response/alerts/SetAlert$AlertType.class
com/amazon/alexa/avs/AVSAPIConstants$Alerts$Events.class
com/amazon/alexa/avs/AVSAPIConstants$System.class
com/amazon/alexa/avs/AVSAPIConstants$AudioPlayer$Events$ProgressReportIntervalElapsed.class
com/amazon/alexa/avs/AVSRequest.class
com/amazon/alexa/avs/AVSAPIConstants$AudioPlayer$Events$PlaybackStarted.class
com/amazon/alexa/avs/http/LinearRetryPolicy.class
com/amazon/alexa/avs/AVSApp$4.class
com/amazon/alexa/avs/AVSAPIConstants$AudioPlayer$Events$PlaybackResumed.class
com/amazon/alexa/avs/StateTransition.class
