/Users/claudius/Documents/workspace/AlexaVerify/OSXClient/src/main/java/com/amazon/alexa/avs/auth/AccessTokenListener.java
/Users/claudius/Documents/workspace/AlexaVerify/OSXClient/src/main/java/com/amazon/alexa/avs/http/jetty/PingSendingHttpClientTransportOverHTTP2.java
/Users/claudius/Documents/workspace/AlexaVerify/OSXClient/src/main/java/com/amazon/alexa/avs/message/request/context/SpeechStatePayload.java
/Users/claudius/Documents/workspace/AlexaVerify/OSXClient/src/main/java/com/amazon/alexa/avs/auth/companionapp/DeviceProvisioningInfo.java
/Users/claudius/Documents/workspace/AlexaVerify/OSXClient/src/main/java/com/amazon/alexa/avs/AVSController.java
/Users/claudius/Documents/workspace/AlexaVerify/OSXClient/src/main/java/com/amazon/alexa/avs/http/LinearRetryPolicy.java
/Users/claudius/Documents/workspace/AlexaVerify/OSXClient/src/main/java/com/amazon/alexa/avs/message/response/audioplayer/Stop.java
/Users/claudius/Documents/workspace/AlexaVerify/OSXClient/src/main/java/com/amazon/alexa/avs/SimpleStateChangeTransition.java
/Users/claudius/Documents/workspace/AlexaVerify/OSXClient/src/main/java/com/amazon/alexa/avs/exception/AlexaSystemException.java
/Users/claudius/Documents/workspace/AlexaVerify/OSXClient/src/main/java/com/amazon/alexa/avs/AlertScheduler.java
/Users/claudius/Documents/workspace/AlexaVerify/OSXClient/src/main/java/com/amazon/alexa/avs/DialogRequestIdAuthority.java
/Users/claudius/Documents/workspace/AlexaVerify/OSXClient/src/main/java/com/amazon/alexa/avs/SpeechRequestAudioPlayerPauseController.java
/Users/claudius/Documents/workspace/AlexaVerify/OSXClient/src/main/java/com/amazon/alexa/avs/auth/companionservice/CompanionServiceRegCodeResponse.java
/Users/claudius/Documents/workspace/AlexaVerify/OSXClient/src/main/java/com/amazon/alexa/avs/http/jetty/InputStreamResponseListener.java
/Users/claudius/Documents/workspace/AlexaVerify/OSXClient/src/main/java/com/amazon/alexa/avs/http/AVSClient.java
/Users/claudius/Documents/workspace/AlexaVerify/OSXClient/src/main/java/com/amazon/alexa/avs/config/DeviceConfigUtils.java
/Users/claudius/Documents/workspace/AlexaVerify/OSXClient/src/main/java/com/amazon/alexa/avs/StateTransition.java
/Users/claudius/Documents/workspace/AlexaVerify/OSXClient/src/main/java/com/amazon/alexa/avs/RecordingStateListener.java
/Users/claudius/Documents/workspace/AlexaVerify/OSXClient/src/main/java/com/amazon/alexa/avs/http/AbstractRetryPolicy.java
/Users/claudius/Documents/workspace/AlexaVerify/OSXClient/src/main/java/com/amazon/alexa/avs/message/response/audioplayer/ClearQueue.java
/Users/claudius/Documents/workspace/AlexaVerify/OSXClient/src/main/java/com/amazon/alexa/avs/PlaybackAction.java
/Users/claudius/Documents/workspace/AlexaVerify/OSXClient/src/main/java/com/amazon/alexa/avs/Alert.java
/Users/claudius/Documents/workspace/AlexaVerify/OSXClient/src/main/java/com/amazon/alexa/avs/message/MessageIdHeader.java
/Users/claudius/Documents/workspace/AlexaVerify/OSXClient/src/main/java/com/amazon/alexa/avs/AlertEventListener.java
/Users/claudius/Documents/workspace/AlexaVerify/OSXClient/src/main/java/com/amazon/alexa/avs/auth/MissingParameterException.java
/Users/claudius/Documents/workspace/AlexaVerify/OSXClient/src/main/java/com/amazon/alexa/avs/message/response/AttachedContentPayload.java
/Users/claudius/Documents/workspace/AlexaVerify/OSXClient/src/main/java/com/amazon/alexa/avs/AVSAudioPlayerFactory.java
/Users/claudius/Documents/workspace/AlexaVerify/OSXClient/src/main/java/com/amazon/alexa/avs/State.java
/Users/claudius/Documents/workspace/AlexaVerify/OSXClient/src/main/java/com/amazon/alexa/avs/exception/AVSException.java
/Users/claudius/Documents/workspace/AlexaVerify/OSXClient/src/main/java/com/amazon/alexa/avs/message/response/audioplayer/Stream.java
/Users/claudius/Documents/workspace/AlexaVerify/OSXClient/src/main/java/com/amazon/alexa/avs/BlockableDirectiveThread.java
/Users/claudius/Documents/workspace/AlexaVerify/OSXClient/src/main/java/com/amazon/alexa/avs/auth/companionapp/server/DeviceInfoHandler.java
/Users/claudius/Documents/workspace/AlexaVerify/OSXClient/src/main/java/com/amazon/alexa/avs/http/ExponentialRetryPolicy.java
/Users/claudius/Documents/workspace/AlexaVerify/OSXClient/src/main/java/com/amazon/alexa/avs/RequestListener.java
/Users/claudius/Documents/workspace/AlexaVerify/OSXClient/src/main/java/com/amazon/alexa/avs/AV_Audio.java
/Users/claudius/Documents/workspace/AlexaVerify/OSXClient/src/main/java/com/amazon/alexa/avs/message/Payload.java
/Users/claudius/Documents/workspace/AlexaVerify/OSXClient/src/main/java/com/amazon/alexa/avs/auth/companionapp/server/CompanionInfoHandler.java
/Users/claudius/Documents/workspace/AlexaVerify/OSXClient/src/main/java/com/amazon/alexa/avs/AudioStateOutputStream.java
/Users/claudius/Documents/workspace/AlexaVerify/OSXClient/src/main/java/com/amazon/alexa/avs/message/request/system/ExceptionEncounteredPayload.java
/Users/claudius/Documents/workspace/AlexaVerify/OSXClient/src/main/java/com/amazon/alexa/avs/http/HttpHeaders.java
/Users/claudius/Documents/workspace/AlexaVerify/OSXClient/src/main/java/com/amazon/alexa/avs/AudioPlayerActivity.java
/Users/claudius/Documents/workspace/AlexaVerify/OSXClient/src/main/java/com/amazon/alexa/avs/AudioPlayerStateMachine.java
/Users/claudius/Documents/workspace/AlexaVerify/OSXClient/src/main/java/com/amazon/alexa/avs/message/response/speaker/SetVolume.java
/Users/claudius/Documents/workspace/AlexaVerify/OSXClient/src/main/java/com/amazon/alexa/avs/message/request/ComponentStateFactory.java
/Users/claudius/Documents/workspace/AlexaVerify/OSXClient/src/main/java/com/amazon/alexa/avs/message/response/speaker/AdjustVolume.java
/Users/claudius/Documents/workspace/AlexaVerify/OSXClient/src/main/java/com/amazon/alexa/avs/http/AVSClientFactory.java
/Users/claudius/Documents/workspace/AlexaVerify/OSXClient/src/main/java/com/amazon/alexa/avs/http/RetryPolicy.java
/Users/claudius/Documents/workspace/AlexaVerify/OSXClient/src/main/java/com/amazon/alexa/avs/message/response/speaker/SetMute.java
/Users/claudius/Documents/workspace/AlexaVerify/OSXClient/src/main/java/com/amazon/alexa/avs/message/request/speechsynthesizer/SpeechLifecyclePayload.java
/Users/claudius/Documents/workspace/AlexaVerify/OSXClient/src/main/java/com/amazon/alexa/avs/AlertManagerFactory.java
/Users/claudius/Documents/workspace/AlexaVerify/OSXClient/src/main/java/com/amazon/alexa/avs/ExpectSpeechListener.java
/Users/claudius/Documents/workspace/AlexaVerify/OSXClient/src/main/java/com/amazon/alexa/avs/AlertsFileDataStore.java
/Users/claudius/Documents/workspace/AlexaVerify/OSXClient/src/main/java/com/amazon/alexa/avs/message/request/context/ComponentState.java
/Users/claudius/Documents/workspace/AlexaVerify/OSXClient/src/main/java/com/amazon/alexa/avs/message/request/audioplayer/PlaybackNearlyFinishedPayload.java
/Users/claudius/Documents/workspace/AlexaVerify/OSXClient/src/main/java/com/amazon/alexa/avs/auth/companionapp/OAuth2ClientForPkce.java
/Users/claudius/Documents/workspace/AlexaVerify/OSXClient/src/main/java/com/amazon/alexa/avs/http/CachingContentProvider.java
/Users/claudius/Documents/workspace/AlexaVerify/OSXClient/src/main/java/com/amazon/alexa/avs/message/response/audioplayer/Play.java
/Users/claudius/Documents/workspace/AlexaVerify/OSXClient/src/main/java/com/amazon/alexa/avs/message/response/ResponseBody.java
/Users/claudius/Documents/workspace/AlexaVerify/OSXClient/src/main/java/com/amazon/alexa/avs/AlertsDataStore.java
/Users/claudius/Documents/workspace/AlexaVerify/OSXClient/src/main/java/com/amazon/alexa/avs/message/request/RequestFactory.java
/Users/claudius/Documents/workspace/AlexaVerify/OSXClient/src/main/java/com/amazon/alexa/avs/AlertHandler.java
/Users/claudius/Documents/workspace/AlexaVerify/OSXClient/src/main/java/com/amazon/alexa/avs/message/response/audioplayer/AudioItem.java
/Users/claudius/Documents/workspace/AlexaVerify/OSXClient/src/main/java/com/amazon/alexa/avs/message/request/RequestBody.java
/Users/claudius/Documents/workspace/AlexaVerify/OSXClient/src/main/java/com/amazon/alexa/avs/MicrophoneLineFactory.java
/Users/claudius/Documents/workspace/AlexaVerify/OSXClient/src/main/java/com/amazon/alexa/avs/message/response/alerts/SetAlert.java
/Users/claudius/Documents/workspace/AlexaVerify/OSXClient/src/main/java/com/amazon/alexa/avs/message/request/system/UserInactivityReportPayload.java
/Users/claudius/Documents/workspace/AlexaVerify/OSXClient/src/main/java/com/amazon/alexa/avs/SpeakItem.java
/Users/claudius/Documents/workspace/AlexaVerify/OSXClient/src/main/java/com/amazon/alexa/avs/RecordingRMSListener.java
/Users/claudius/Documents/workspace/AlexaVerify/OSXClient/src/main/java/com/amazon/alexa/avs/AudioCapture.java
/Users/claudius/Documents/workspace/AlexaVerify/OSXClient/src/main/java/com/amazon/alexa/avs/SpeechProfile.java
/Users/claudius/Documents/workspace/AlexaVerify/OSXClient/src/main/java/com/amazon/alexa/avs/auth/companionapp/CompanionAppProvisioningInfo.java
/Users/claudius/Documents/workspace/AlexaVerify/OSXClient/src/main/java/com/amazon/alexa/avs/message/request/context/VolumeStatePayload.java
/Users/claudius/Documents/workspace/AlexaVerify/OSXClient/src/main/java/com/amazon/alexa/avs/message/response/speechrecognizer/Listen.java
/Users/claudius/Documents/workspace/AlexaVerify/OSXClient/src/main/java/com/amazon/alexa/avs/message/response/alerts/DeleteAlert.java
/Users/claudius/Documents/workspace/AlexaVerify/OSXClient/src/main/java/com/amazon/alexa/avs/auth/companionapp/CodeChallengeWorkflow.java
/Users/claudius/Documents/workspace/AlexaVerify/OSXClient/src/main/java/com/amazon/alexa/avs/message/request/audioplayer/AudioPlayerPayload.java
/Users/claudius/Documents/workspace/AlexaVerify/OSXClient/src/main/java/com/amazon/alexa/avs/AV_Profiler.java
/Users/claudius/Documents/workspace/AlexaVerify/OSXClient/src/main/java/com/amazon/alexa/avs/exception/DirectiveHandlingException.java
/Users/claudius/Documents/workspace/AlexaVerify/OSXClient/src/main/java/com/amazon/alexa/avs/http/MessageParser.java
/Users/claudius/Documents/workspace/AlexaVerify/OSXClient/src/main/java/com/amazon/alexa/avs/message/Message.java
/Users/claudius/Documents/workspace/AlexaVerify/OSXClient/src/main/java/com/amazon/alexa/avs/auth/companionapp/server/CompanionAppProvisioningServer.java
/Users/claudius/Documents/workspace/AlexaVerify/OSXClient/src/main/java/com/amazon/alexa/avs/AVSAudioPlayer.java
/Users/claudius/Documents/workspace/AlexaVerify/OSXClient/src/main/java/com/amazon/alexa/avs/message/response/Directive.java
/Users/claudius/Documents/workspace/AlexaVerify/OSXClient/src/main/java/com/amazon/alexa/avs/AV_API.java
/Users/claudius/Documents/workspace/AlexaVerify/OSXClient/src/main/java/com/amazon/alexa/avs/message/request/context/PlaybackStatePayload.java
/Users/claudius/Documents/workspace/AlexaVerify/OSXClient/src/main/java/com/amazon/alexa/avs/auth/companionservice/RegCodeDisplayHandler.java
/Users/claudius/Documents/workspace/AlexaVerify/OSXClient/src/main/java/com/amazon/alexa/avs/message/request/audioplayer/PlaybackStutterFinishedPayload.java
/Users/claudius/Documents/workspace/AlexaVerify/OSXClient/src/main/java/com/amazon/alexa/avs/auth/companionapp/CompanionAppAuthManager.java
/Users/claudius/Documents/workspace/AlexaVerify/OSXClient/src/main/java/com/amazon/alexa/avs/http/AudioInputStreamContentProvider.java
/Users/claudius/Documents/workspace/AlexaVerify/OSXClient/src/main/java/com/amazon/alexa/avs/AVSApp.java
/Users/claudius/Documents/workspace/AlexaVerify/OSXClient/src/main/java/com/amazon/alexa/avs/DirectiveDispatcher.java
/Users/claudius/Documents/workspace/AlexaVerify/OSXClient/src/main/java/com/amazon/alexa/avs/Oxford.java
/Users/claudius/Documents/workspace/AlexaVerify/OSXClient/src/main/java/com/amazon/alexa/avs/AudioInputFormat.java
/Users/claudius/Documents/workspace/AlexaVerify/OSXClient/src/main/java/com/amazon/alexa/avs/http/ContentTypes.java
/Users/claudius/Documents/workspace/AlexaVerify/OSXClient/src/main/java/com/amazon/alexa/avs/message/response/system/Exception.java
/Users/claudius/Documents/workspace/AlexaVerify/OSXClient/src/main/java/com/amazon/alexa/avs/AlertManager.java
/Users/claudius/Documents/workspace/AlexaVerify/OSXClient/src/main/java/com/amazon/alexa/avs/http/MultipartContentProvider.java
/Users/claudius/Documents/workspace/AlexaVerify/OSXClient/src/main/java/com/amazon/alexa/avs/http/MultipartParser.java
/Users/claudius/Documents/workspace/AlexaVerify/OSXClient/src/main/java/com/amazon/alexa/avs/message/response/speaker/VolumePayload.java
/Users/claudius/Documents/workspace/AlexaVerify/OSXClient/src/main/java/com/amazon/alexa/avs/AudioPlayerProgressReporter.java
/Users/claudius/Documents/workspace/AlexaVerify/OSXClient/src/main/java/com/amazon/alexa/avs/config/DeviceConfig.java
/Users/claudius/Documents/workspace/AlexaVerify/OSXClient/src/main/java/com/amazon/alexa/avs/auth/AuthSetup.java
/Users/claudius/Documents/workspace/AlexaVerify/OSXClient/src/main/java/com/amazon/alexa/avs/AV_Verify.java
/Users/claudius/Documents/workspace/AlexaVerify/OSXClient/src/main/java/com/amazon/alexa/avs/message/Header.java
/Users/claudius/Documents/workspace/AlexaVerify/OSXClient/src/main/java/com/amazon/alexa/avs/auth/companionapp/LWAException.java
/Users/claudius/Documents/workspace/AlexaVerify/OSXClient/src/main/java/com/amazon/alexa/avs/message/response/ProgressReport.java
/Users/claudius/Documents/workspace/AlexaVerify/OSXClient/src/main/java/com/amazon/alexa/avs/AudioPlayerEventPayload.java
/Users/claudius/Documents/workspace/AlexaVerify/OSXClient/src/main/java/com/amazon/alexa/avs/DateUtils.java
/Users/claudius/Documents/workspace/AlexaVerify/OSXClient/src/main/java/com/amazon/alexa/avs/message/request/Event.java
/Users/claudius/Documents/workspace/AlexaVerify/OSXClient/src/main/java/com/amazon/alexa/avs/message/request/speechrecognizer/SpeechRecognizerPayload.java
/Users/claudius/Documents/workspace/AlexaVerify/OSXClient/src/main/java/com/amazon/alexa/avs/message/DialogRequestIdHeader.java
/Users/claudius/Documents/workspace/AlexaVerify/OSXClient/src/main/java/com/amazon/alexa/avs/auth/companionservice/CompanionServiceClient.java
/Users/claudius/Documents/workspace/AlexaVerify/OSXClient/src/main/java/com/amazon/alexa/avs/AVSAPIConstants.java
/Users/claudius/Documents/workspace/AlexaVerify/OSXClient/src/main/java/com/amazon/alexa/avs/message/request/context/AlertsStatePayload.java
/Users/claudius/Documents/workspace/AlexaVerify/OSXClient/src/main/java/com/amazon/alexa/avs/message/request/ContextEventRequestBody.java
/Users/claudius/Documents/workspace/AlexaVerify/OSXClient/src/main/java/com/amazon/alexa/avs/message/response/speechsynthesizer/Speak.java
/Users/claudius/Documents/workspace/AlexaVerify/OSXClient/src/main/java/com/amazon/alexa/avs/auth/OAuth2AccessToken.java
/Users/claudius/Documents/workspace/AlexaVerify/OSXClient/src/main/java/com/amazon/alexa/avs/message/response/speechsynthesizer/ExpectSpeech.java
/Users/claudius/Documents/workspace/AlexaVerify/OSXClient/src/main/java/com/amazon/alexa/avs/AVSRequest.java
/Users/claudius/Documents/workspace/AlexaVerify/OSXClient/src/main/java/com/amazon/alexa/avs/auth/companionapp/OAuth2TokensForPkce.java
/Users/claudius/Documents/workspace/AlexaVerify/OSXClient/src/main/java/com/amazon/alexa/avs/DirectiveEnqueuer.java
/Users/claudius/Documents/workspace/AlexaVerify/OSXClient/src/main/java/com/amazon/alexa/avs/message/request/audioplayer/PlaybackFailedPayload.java
/Users/claudius/Documents/workspace/AlexaVerify/OSXClient/src/main/java/com/amazon/alexa/avs/config/ObjectMapperFactory.java
/Users/claudius/Documents/workspace/AlexaVerify/OSXClient/src/main/java/com/amazon/alexa/avs/http/ParsingFailedHandler.java
/Users/claudius/Documents/workspace/AlexaVerify/OSXClient/src/main/java/com/amazon/alexa/avs/message/request/alerts/AlertPayload.java
/Users/claudius/Documents/workspace/AlexaVerify/OSXClient/src/main/java/com/amazon/alexa/avs/message/response/AlexaExceptionResponse.java
/Users/claudius/Documents/workspace/AlexaVerify/OSXClient/src/main/java/com/amazon/alexa/avs/UserActivityListener.java
/Users/claudius/Documents/workspace/AlexaVerify/OSXClient/src/main/java/com/amazon/alexa/avs/exception/AVSJsonProcessingException.java
/Users/claudius/Documents/workspace/AlexaVerify/OSXClient/src/main/java/com/amazon/alexa/avs/auth/companionservice/CompanionServiceAuthManager.java
/Users/claudius/Documents/workspace/AlexaVerify/OSXClient/src/main/java/com/amazon/alexa/avs/auth/AuthConstants.java
